<?xml version="1.0" encoding="UTF-8" standalone="no"?>
<!-- Created with Inkscape (http://www.inkscape.org/) -->

<svg
   width="256"
   height="256"
   viewBox="0 0 67.733332 67.733335"
   version="1.1"
   id="svg8"
   inkscape:version="1.1.1 (eb90963e84, 2021-10-02)"
   sodipodi:docname="HexExplorer.svg"
   inkscape:export-filename="/media/Daten/Forks/hexexplorer/assets/HexExplorer.png"
   inkscape:export-xdpi="96"
   inkscape:export-ydpi="96"
   xmlns:inkscape="http://www.inkscape.org/namespaces/inkscape"
   xmlns:sodipodi="http://sodipodi.sourceforge.net/DTD/sodipodi-0.dtd"
   xmlns="http://www.w3.org/2000/svg"
   xmlns:svg="http://www.w3.org/2000/svg"
   xmlns:rdf="http://www.w3.org/1999/02/22-rdf-syntax-ns#"
   xmlns:cc="http://creativecommons.org/ns#"
   xmlns:dc="http://purl.org/dc/elements/1.1/">
  <defs
     id="defs2" />
  <sodipodi:namedview
     id="base"
     pagecolor="#ffffff"
     bordercolor="#666666"
     borderopacity="1.0"
     inkscape:pageopacity="0.0"
     inkscape:pageshadow="2"
     inkscape:zoom="1.979899"
     inkscape:cx="156.32111"
     inkscape:cy="106.82363"
     inkscape:document-units="px"
     inkscape:current-layer="layer1"
     showgrid="false"
     units="px"
     inkscape:pagecheckerboard="true"
     inkscape:window-width="1856"
     inkscape:window-height="1016"
     inkscape:window-x="64"
     inkscape:window-y="27"
     inkscape:window-maximized="1" />
  <metadata
     id="metadata5">
    <rdf:RDF>
      <cc:Work
         rdf:about="">
        <dc:format>image/svg+xml</dc:format>
        <dc:type
           rdf:resource="http://purl.org/dc/dcmitype/StillImage" />
        <cc:license
           rdf:resource="http://creativecommons.org/licenses/by-sa/4.0/" />
      </cc:Work>
      <cc:License
         rdf:about="http://creativecommons.org/licenses/by-sa/4.0/">
        <cc:permits
           rdf:resource="http://creativecommons.org/ns#Reproduction" />
        <cc:permits
           rdf:resource="http://creativecommons.org/ns#Distribution" />
        <cc:requires
           rdf:resource="http://creativecommons.org/ns#Notice" />
        <cc:requires
           rdf:resource="http://creativecommons.org/ns#Attribution" />
        <cc:permits
           rdf:resource="http://creativecommons.org/ns#DerivativeWorks" />
        <cc:requires
           rdf:resource="http://creativecommons.org/ns#ShareAlike" />
      </cc:License>
    </rdf:RDF>
  </metadata>
  <g
     inkscape:label="Layer 1"
     inkscape:groupmode="layer"
     id="layer1"
     transform="translate(0,-229.26665)">
    <rect
       style="fill:#91009c;fill-opacity:1;stroke:none;stroke-width:0.26458332;stroke-miterlimit:4;stroke-dasharray:none;stroke-opacity:1"
       id="rect818"
       width="67.73333"
       height="67.73333"
       x="1.8635253e-06"
       y="229.26665" />
    <circle
       cy="265.24997"
       cx="41.275002"
       id="circle814"
       style="fill:#00ff00;fill-opacity:1;stroke:#000000;stroke-width:0.40886191;stroke-miterlimit:4;stroke-dasharray:none;stroke-opacity:1"
       r="16.728903" />
    <ellipse
       style="fill:#ff0000;fill-opacity:1;stroke:#000000;stroke-width:0.40886196;stroke-miterlimit:4;stroke-dasharray:none;stroke-opacity:1"
       id="path812"
       cx="24.077082"
       cy="253.60832"
       rx="16.728901"
       ry="16.728903" />
    <ellipse
       style="fill:#0000ff;fill-opacity:1;stroke:#000000;stroke-width:0.40886191;stroke-miterlimit:4;stroke-dasharray:none;stroke-opacity:1"
       id="circle816"
       cx="24.077082"
       cy="272.65833"
       rx="16.728901"
       ry="16.728903" />
    <flowRoot
       xml:space="preserve"
       id="flowRoot839"
       style="font-style:italic;font-variant:normal;font-weight:500;font-stretch:normal;font-size:41.6953px;line-height:1.25;font-family:'URW Chancery L';-inkscape-font-specification:'URW Chancery L, Medium Italic';font-variant-ligatures:normal;font-variant-caps:normal;font-variant-numeric:normal;font-feature-settings:normal;text-align:start;letter-spacing:0px;word-spacing:0px;writing-mode:lr-tb;text-anchor:start;fill:#000000;fill-opacity:1;stroke:#ffffff;stroke-width:0.275925;stroke-miterlimit:4;stroke-dasharray:none;stroke-opacity:1"
       transform="matrix(1.4383459,0,0,1.4383459,461.02124,64.711752)"><flowRegion
         id="flowRegion841"
         style="font-style:italic;font-variant:normal;font-weight:500;font-stretch:normal;font-size:41.6953px;font-family:'URW Chancery L';-inkscape-font-specification:'URW Chancery L, Medium Italic';font-variant-ligatures:normal;font-variant-caps:normal;font-variant-numeric:normal;font-feature-settings:normal;text-align:start;writing-mode:lr-tb;text-anchor:start;stroke:#ffffff;stroke-width:0.275925;stroke-miterlimit:4;stroke-dasharray:none;stroke-opacity:1"><rect
           id="rect843"
           width="144.28572"
           height="133.57143"
           x="-310.71429"
           y="112.42857"
           style="font-style:italic;font-variant:normal;font-weight:500;font-stretch:normal;font-size:41.69527054px;font-family:'URW Chancery L';-inkscape-font-specification:'URW Chancery L, Medium Italic';font-variant-ligatures:normal;font-variant-caps:normal;font-variant-numeric:normal;font-feature-settings:normal;text-align:start;writing-mode:lr-tb;text-anchor:start;stroke:#ffffff;stroke-width:0.27592459;stroke-miterlimit:4;stroke-dasharray:none;stroke-opacity:1" /></flowRegion><flowPara
         id="flowPara845">#</flowPara></flowRoot>
    <flowRoot
       xml:space="preserve"
       id="flowRoot821"
       style="font-style:normal;font-weight:normal;font-size:40px;line-height:1.25;font-family:sans-serif;letter-spacing:0px;word-spacing:0px;fill:#000000;fill-opacity:1;stroke:none"
       transform="matrix(0.26458333,0,0,0.26458333,0,229.26665)"><flowRegion
         id="flowRegion823"><rect
           id="rect825"
           width="81.428574"
           height="44.285713"
           x="-239.28572"
           y="175.28572" /></flowRegion><flowPara
         id="flowPara827">'#</flowPara></flowRoot>
    <text
       xml:space="preserve"
       style="font-style:normal;font-variant:normal;font-weight:normal;font-stretch:normal;font-size:56.4444px;line-height:1.25;font-family:Ubuntu;-inkscape-font-specification:'Ubuntu, Normal';font-variant-ligatures:normal;font-variant-caps:normal;font-variant-numeric:normal;font-feature-settings:normal;text-align:start;letter-spacing:0px;word-spacing:0px;writing-mode:lr-tb;text-anchor:start;fill:#000000;fill-opacity:1;stroke:#ffffff;stroke-width:0.264583;stroke-miterlimit:4;stroke-dasharray:none;stroke-opacity:1"
       x="15.042445"
       y="282.69131"
       id="text831"><tspan
         sodipodi:role="line"
         id="tspan829"
         x="15.042445"
         y="282.69131"
         style="font-style:normal;font-variant:normal;font-weight:normal;font-stretch:normal;font-size:56.4444px;font-family:Ubuntu;-inkscape-font-specification:'Ubuntu, Normal';font-variant-ligatures:normal;font-variant-caps:normal;font-variant-numeric:normal;font-feature-settings:normal;text-align:start;writing-mode:lr-tb;text-anchor:start;stroke:#ffffff;stroke-width:0.264583;stroke-miterlimit:4;stroke-dasharray:none;stroke-opacity:1">#</tspan></text>
    <rect
       style="fill:#ffffff;fill-opacity:0.17961168;stroke:none;stroke-width:0.52916664;stroke-miterlimit:4;stroke-dasharray:none;stroke-opacity:1"
       id="rect847"
       width="67.73333"
       height="33.866665"
       x="1.8635254e-06"
       y="263.13333" />
    <path
       style="fill:#d4aa00;stroke-width:0.357143"
       d="M 0,63.928571 V 0.17857143 H 127.85714 255.71429 V 63.928571 127.67857 h -18.03572 c -9.91964,0 -18.03571,-0.0722 -18.03571,-0.16044 0,-0.0882 -0.33122,-1.87676 -0.73604,-3.97449 -1.07823,-5.58729 -2.87035,-10.75198 -5.69098,-16.40078 -7.29401,-14.607549 -19.63198,-25.626667 -35.18013,-31.419585 -1.96428,-0.731853 -3.62297,-1.379457 -3.68597,-1.439121 -0.10034,-0.09503 3.2351,-17.975593 3.74716,-20.087725 l 0.19482,-0.803572 h -9.67477 -9.67477 l -0.18776,0.803572 c -0.10327,0.441964 -0.83936,4.258928 -1.63576,8.482142 -0.79641,4.223215 -1.53597,8.040179 -1.64348,8.482143 -0.1683,0.691897 -0.42919,0.803572 -1.87725,0.803572 h -1.68177 l -0.60539,-1.920511 c -0.8828,-2.800571 -4.27528,-9.551036 -6.56644,-13.066129 C 140.41148,50.330204 133.76172,43.507657 127.38449,39.166739 97.752661,18.996649 57.603625,26.638033 37.795968,56.217714 c -11.04031,16.487 -13.875221,36.813222 -7.781358,55.792076 1.071081,3.3358 4.65691,11.04197 6.58469,14.15092 l 0.941186,1.51786 H 18.770243 0 Z"
       id="path4806"
       transform="matrix(0.26458333,0,0,0.26458333,0,229.26665)" />
    <path
       style="fill:#d4aa00;stroke-width:0.357143"
       d="m 0,191.96429 v -63.92858 h 18.89622 18.896219 l -2.000007,3.30358 c -3.870196,6.3927 -6.837174,14.62151 -8.163502,22.64116 -0.861389,5.2084 -0.864086,15.3612 -0.0053,20.12669 2.548746,14.14404 8.286015,25.34699 17.99008,35.12852 9.099421,9.17206 20.314053,15.15652 33.350643,17.79688 3.537839,0.71654 5.124514,0.82449 12.107125,0.82374 7.05991,-7.1e-4 8.534457,-0.10369 12.142862,-0.84768 14.75776,-3.04278 27.98525,-10.85498 36.96617,-21.83234 l 2.04344,-2.49769 h 3.67809 3.67808 l 0.2269,-1.33928 0.22689,-1.33929 6.50093,-0.0425 c 7.73191,-0.0505 12.57701,-0.80105 19.30811,-2.99091 19.36665,-6.30065 34.50551,-21.31285 40.91876,-40.57639 2.59783,-7.80312 3.02654,-10.62681 3.0442,-20.05072 l 0.0156,-8.30334 17.94643,-2.3e-4 17.94643,-2.3e-4 v 63.92858 63.92857 H 127.85714 0 Z"
       id="path4845"
       transform="matrix(0.26458333,0,0,0.26458333,0,229.26665)" />
    <path
       style="fill:#ffcc00;stroke-width:0.357143"
       d="M 0,63.928571 V 0.17857143 H 127.85714 255.71429 V 63.928571 127.67857 h -6.72748 c -3.70011,0 -11.78348,-0.10563 -17.96305,-0.23473 l -11.23557,-0.23474 -0.80601,-3.96169 c -1.64794,-8.09989 -4.97169,-16.04441 -9.6586,-23.08624 -7.4214,-11.150245 -17.39918,-19.104748 -30.4735,-24.294138 -2.01933,-0.8015 -3.80317,-1.5847 -3.96409,-1.740446 -0.29946,-0.289836 0.74354,-6.663104 2.56483,-15.672479 l 1.02316,-5.06125 h -9.87837 -9.87837 l -1.72225,8.953457 c -1.65258,8.591243 -1.75933,8.967554 -2.63879,9.301922 -1.59659,0.607021 -2.24716,0.267657 -2.81737,-1.469664 -0.79098,-2.409947 -3.81298,-8.644686 -5.68344,-11.725579 -4.63345,-7.631918 -12.03004,-15.308586 -19.42682,-20.162418 -3.75355,-2.463118 -11.30319,-6.057512 -15.53571,-7.39658 -20.701374,-6.549409 -42.862378,-2.637599 -59.628892,10.525555 -3.629464,2.849439 -9.138025,8.493504 -11.685854,11.973307 -8.163645,11.149847 -12.236129,22.84835 -12.681515,36.428572 -0.275543,8.401543 0.665649,15.280721 3.074295,22.470051 1.145169,3.4181 4.653065,11.04127 6.214495,13.505 0.526607,0.83091 0.957468,1.59431 0.957468,1.69642 0,0.10212 -8.357143,0.18567 -18.571428,0.18567 H 0 Z"
       id="path4958"
       transform="matrix(0.26458333,0,0,0.26458333,0,229.26665)" />
  </g>
</svg>
